mc23_13p6TeV.700864.Sh_2214_WpWmWm_lvlvjj_EW6.deriv.DAOD_PHYSLITE.e8532_s4159_r15224_p6266
mc23_13p6TeV.700864.Sh_2214_WpWmWm_lvlvjj_EW6.deriv.DAOD_PHYSLITE.e8532_s4162_r14622_p6266


mc23_13p6TeV.700865.Sh_2214_WpWpWm_lvlvjj_EW6.deriv.DAOD_PHYSLITE.e8532_s4159_r15224_p6266
mc23_13p6TeV.700865.Sh_2214_WpWpWm_lvlvjj_EW6.deriv.DAOD_PHYSLITE.e8532_s4162_r14622_p6266


mc23_13p6TeV.700866.Sh_2214_WWW_3l3v_EW6.deriv.DAOD_PHYSLITE.e8532_s4159_r15224_p6266
mc23_13p6TeV.700866.Sh_2214_WWW_3l3v_EW6.deriv.DAOD_PHYSLITE.e8532_s4162_r14622_p6266


mc23_13p6TeV.700867.Sh_2214_WZZ_3l3v_EW6.deriv.DAOD_PHYSLITE.e8532_s4159_r15224_p6266
mc23_13p6TeV.700867.Sh_2214_WZZ_3l3v_EW6.deriv.DAOD_PHYSLITE.e8532_s4162_r14622_p6266


mc23_13p6TeV.700868.Sh_2214_ZZZ_2l4v_EW6.deriv.DAOD_PHYSLITE.e8532_s4159_r15224_p6266
mc23_13p6TeV.700868.Sh_2214_ZZZ_2l4v_EW6.deriv.DAOD_PHYSLITE.e8532_s4162_r14622_p6266


mc23_13p6TeV.700584.Sh_2214_WWZ_2l4v_EW6.deriv.DAOD_PHYSLITE.e8532_s4159_r15224_p6266
mc23_13p6TeV.700584.Sh_2214_WWZ_2l4v_EW6.deriv.DAOD_PHYSLITE.e8532_s4162_r14622_p6266
